{
  "appId": "rocketfront.rocketfirm.com",
  "appName": "Rocketfront Hybrid",
  "bundledWebRuntime": false,
  "npmClient": "yarn",
  "webDir": "src/dist",
  "plugins": {
    "SplashScreen": {
      "launchShowDuration": 0
    }
  },
  "cordova": {}
}
